Chapter 3 Manipulación y agrupación de datos | AIS: Capacitación de R
…
#> 10  2021         1 Aguascalientes La vida… Lesion… Lesion… Con ar… Enero       5
#> 11  2021         1 Aguascalientes La vida… Lesion… Lesion… Con ar… Enero       7
#> 12  2021         1 Aguascalientes La vida… Lesion… Lesion… Con ot… Enero     160
#> 13  2021         1 Aguascalientes La vida… Lesion… Lesion… No esp… Enero      56
#> 14  2021         1 Aguascalientes La vida… Lesion… Lesion… Con ar… Enero       0
#> 15  2021         1 Aguascalientes La vida… Lesion… Lesion… Con ar… Enero       0
#> 16  2021         1 Aguascalientes La vida… Lesion… Lesion… En acc… Enero      59
#> 17  2021         1 Aguascalientes La vida… Lesion… Lesion… Con ot… Enero       0
#> 18  2021         1 Aguascalientes La vida… Lesion… Lesion… No esp… Enero      18
#> 19  2021         1 Aguascalientes La vida… Femini… Femini… Con ar… Enero       0
#> 20  2021         1 Aguascalientes La vida… Femini… Femini… Con ar… Enero       1
#> # … with abbreviated variable names ¹​`Bien jurídico afectado`,
#> #   ²​`Tipo de delito`, ³​`Subtipo de delito`, ⁴​Modalidad, ⁵​total_delitos

#> # A tibble: 40 × 33
#> # Groups:   Tipo de delito [40]
#>    Tipo de del…¹ Aguas…² Baja …³ Baja …⁴ Campe…⁵ Chiapas Chihu…⁶ Ciuda…⁷ Coahu…⁸
#>    <chr>           <dbl>   <dbl>   <dbl>   <dbl>   <dbl>   <dbl>   <dbl>   <dbl>
#>  1 Aborto              0       1       1       0       3       1       8       0
#>  2 Abuso de con…      50      29      12       0       4      60     302      52
#>  3 Abuso sexual        0      70      20       3      17     103     206      46
#>  4 Acoso sexual        0       0       8       0       7       0      86      15
#>  5 Allanamiento…      35     185       9       6       8      70      47      39
#>  6 Amenazas          227     324     102       5      26     248    1110     359
#>  7 Contra el me…       2       0       0       0       1      18      45       0
#>  8 Corrupción d…       5      50       3       0       3       5      21       3
#>  9 Daño a la pr…     317     576      85      12      67     656     697     459
#> 10 Delitos come…      47      69      18       0      10     134     307      13
#> # … with 30 more rows, 24 more variables: Colima <dbl>, Durango <dbl>,
#> #   Guanajuato <dbl>, Guerrero <dbl>, Hidalgo <dbl>, Jalisco <dbl>,
#> #   México <dbl>, `Michoacán de Ocampo` <dbl>, Morelos <dbl>, Nayarit <dbl>,
#> #   `Nuevo León` <dbl>, Oaxaca <dbl>, Puebla <dbl>, Querétaro <dbl>,
#> #   `Quintana Roo` <dbl>, `San Luis Potosí` <dbl>, Sinaloa <dbl>, Sonora <dbl>,
#> #   Tabasco <dbl>, Tamaulipas <dbl>, Tlaxcala <dbl>,
#> #   `Veracruz de Ignacio de la Llave` <dbl>, Yucatán <dbl>, Zacatecas <dbl>, …
…
library(tidyverse)
flights <- read_csv("data/flights.csv")
#> Rows: 227496 Columns: 14
#> ── Column specification ────────────────────────────────────────────────────────
#> Delimiter: ","
#> chr   (3): carrier, dest, plane
#> dbl  (10): hour, minute, dep, arr, dep_delay, arr_delay, flight, cancelled, ...
#> dttm  (1): date
#> 
#> ℹ Use `spec()` to retrieve the full column specification for this data.
#> ℹ Specify the column types or set `show_col_types = FALSE` to quiet this message.
flights
#> # A tibble: 227,496 × 14
#>    date                 hour minute   dep   arr dep_delay arr_d…¹ carrier flight
#>    <dttm>              <dbl>  <dbl> <dbl> <dbl>     <dbl>   <dbl> <chr>    <dbl>
#>  1 2011-01-01 12:00:00    14      0  1400  1500         0     -10 AA         428
#>  2 2011-01-02 12:00:00    14      1  1401  1501         1      -9 AA         428
#>  3 2011-01-03 12:00:00    13     52  1352  1502        -8      -8 AA         428
#>  4 2011-01-04 12:00:00    14      3  1403  1513         3       3 AA         428
#>  5 2011-01-05 12:00:00    14      5  1405  1507         5      -3 AA         428
#>  6 2011-01-06 12:00:00    13     59  1359  1503        -1      -7 AA         428
#>  7 2011-01-07 12:00:00    13     59  1359  1509        -1      -1 AA         428
#>  8 2011-01-08 12:00:00    13     55  1355  1454        -5     -16 AA         428
#>  9 2011-01-09 12:00:00    14     43  1443  1554        43      44 AA         428
#> 10 2011-01-10 12:00:00    14     43  1443  1553        43      43 AA         428
#> # … with 227,486 more rows, 5 more variables: dest <chr>, plane <chr>,
#> #   cancelled <dbl>, time <dbl>, dist <dbl>, and abbreviated variable name
#> #   ¹​arr_delay
weather <- read_csv("data/weather.csv")
#> Rows: 8723 Columns: 14
#> ── Column specification ────────────────────────────────────────────────────────
#> Delimiter: ","
#> chr   (3): wind_dir, conditions, events
#> dbl  (10): hour, temp, dew_point, humidity, pressure, visibility, wind_dir2,...
#> date  (1): date
#> 
#> ℹ Use `spec()` to retrieve the full column specification for this data.
#> ℹ Specify the column types or set `show_col_types = FALSE` to quiet this message.
weather 
#> # A tibble: 8,723 × 14
#>    date        hour  temp dew_point humidity pressure visibility wind_…¹ wind_…²
#>    <date>     <dbl> <dbl>     <dbl>    <dbl>    <dbl>      <dbl> <chr>     <dbl>
#>  1 2011-01-01     0  59        28.9       32     29.9         10 NNE          20
#>  2 2011-01-01     1  57.2      28.4       33     29.9         10 NNE          20
#>  3 2011-01-01     2  55.4      28.4       36     29.9         10 NNW         340
#>  4 2011-01-01     3  53.6      28.4       38     29.9         10 North       350
#>  5 2011-01-01     4  NA        NA         NA     30.0         10 NNW         340
#>  6 2011-01-01     5  NA        NA         NA     30.0         10 North       350
#>  7 2011-01-01     6  53.1      17.1       24     30.0         10 North       360
#>  8 2011-01-01     7  53.1      16         23     30.1         10 North        10
#>  9 2011-01-01     8  54        18         24     30.1         10 North        10
#> 10 2011-01-01     9  55.4      17.6       23     30.1         10 NNE          20
#> # … with 8,713 more rows, 5 more variables: wind_speed <dbl>, gust_speed <dbl>,
#> #   precip <dbl>, conditions <chr>, events <chr>, and abbreviated variable
#> #   names ¹​wind_dir, ²​wind_dir2
planes <- read_csv("data/planes.csv")
#> Rows: 2853 Columns: 9
#> ── Column specification ────────────────────────────────────────────────────────
#> Delimiter: ","
#> chr (5): plane, mfr, model, engine, type
#> dbl (4): year, no.eng, no.seats, speed
#> 
#> ℹ Use `spec()` to retrieve the full column specification for this data.
#> ℹ Specify the column types or set `show_col_types = FALSE` to quiet this message.
planes
#> # A tibble: 2,853 × 9
#>    plane   year mfr               model        no.eng no.se…¹ speed engine type 
#>    <chr>  <dbl> <chr>             <chr>         <dbl>   <dbl> <dbl> <chr>  <chr>
#>  1 N576AA  1991 MCDONNELL DOUGLAS DC-9-82(MD-…      2     172    NA Turbo… Fixe…
#>  2 N557AA  1993 MARZ BARRY        KITFOX IV         1       2    NA Recip… Fixe…
#>  3 N403AA  1974 RAVEN             S55A             NA       1    60 None   Ball…
#>  4 N492AA  1989 MCDONNELL DOUGLAS DC-9-82(MD-…      2     172    NA Turbo… Fixe…
#>  5 N262AA  1985 MCDONNELL DOUGLAS DC-9-82(MD-…      2     172    NA Turbo… Fixe…
#>  6 N493AA  1989 MCDONNELL DOUGLAS DC-9-82(MD-…      2     172    NA Turbo… Fixe…
#>  7 N477AA  1988 MCDONNELL DOUGLAS DC-9-82(MD-…      2     172    NA Turbo… Fixe…
#>  8 N476AA  1988 MCDONNELL DOUGLAS DC-9-82(MD-…      2     172    NA Turbo… Fixe…
#>  9 N504AA    NA AUTHIER ANTHONY P TIERRA II         1       2    NA Recip… Fixe…
#> 10 N565AA  1987 MCDONNELL DOUGLAS DC-9-83(MD-…      2     172    NA Turbo… Fixe…
#> # … with 2,843 more rows, and abbreviated variable name ¹​no.seats
airports <- read_csv("data/airports.csv")
#> Rows: 3376 Columns: 7
#> ── Column specification ────────────────────────────────────────────────────────
#> Delimiter: ","
#> chr (5): iata, airport, city, state, country
#> dbl (2): lat, long
#> 
#> ℹ Use `spec()` to retrieve the full column specification for this data.
#> ℹ Specify the column types or set `show_col_types = FALSE` to quiet this message.
airports
#> # A tibble: 3,376 × 7
#>    iata  airport              city             state country   lat   long
#>    <chr> <chr>                <chr>            <chr> <chr>   <dbl>  <dbl>
#>  1 00M   Thigpen              Bay Springs      MS    USA      32.0  -89.2
#>  2 00R   Livingston Municipal Livingston       TX    USA      30.7  -95.0
#>  3 00V   Meadow Lake          Colorado Springs CO    USA      38.9 -105. 
#>  4 01G   Perry-Warsaw         Perry            NY    USA      42.7  -78.1
#>  5 01J   Hilliard Airpark     Hilliard         FL    USA      30.7  -81.9
#>  6 01M   Tishomingo County    Belmont          MS    USA      34.5  -88.2
#>  7 02A   Gragg-Wade           Clanton          AL    USA      32.9  -86.6
#>  8 02C   Capitol              Brookfield       WI    USA      43.1  -88.2
#>  9 02G   Columbiana County    East Liverpool   OH    USA      40.7  -80.6
#> 10 03D   Memphis Memorial     Memphis          MO    USA      40.4  -92.2
#> # … with 3,366 more rows
…
En ocasiones es conveniente crear variables por grupo, por ejemplo estandarizar
dentro de cada grupo z = (x - mean(x)) / sd(x).

Veamos un ejemplo:

planes <- flights %>%
  filter(!is.na(arr_delay)) %>%
  group_by(plane) %>%
  filter(n() > 30)
planes %>%
  mutate(z_delay =
    (arr_delay - mean(arr_delay)) / sd(arr_delay)) %>%
  filter(z_delay > 5)
#> # A tibble: 1,403 × 16
#> # Groups:   plane [856]
#>    date                 hour minute   dep   arr dep_delay arr_d…¹ carrier flight
#>    <dttm>              <dbl>  <dbl> <dbl> <dbl>     <dbl>   <dbl> <chr>    <dbl>
#>  1 2011-01-28 12:00:00    15     16  1516  1916       351     326 CO           1
#>  2 2011-01-27 12:00:00    18     22  1822  1945       234     210 CO         137
#>  3 2011-01-27 12:00:00    21     37  2137  2254       242     219 CO         150
#>  4 2011-01-27 12:00:00     0     11    11   216       168     137 CO         209
#>  5 2011-01-27 12:00:00    22     37  2237   153       227     208 CO         250
#>  6 2011-01-27 12:00:00    21     28  2128   136       231     216 CO        1632
#>  7 2011-01-26 12:00:00    11     46  1146  1633       171     193 CO         510
#>  8 2011-01-26 12:00:00     9     49   949  1436       144     180 CO         776
#>  9 2011-01-21 12:00:00    19     11  1911  2352        94     112 CO        1632
#> 10 2011-01-20 12:00:00     6     35   635   807       780     775 CO          59
#> # … with 1,393 more rows, 7 more variables: dest <chr>, plane <chr>,
#> #   cancelled <dbl>, time <dbl>, dist <dbl>, date_only <date>, z_delay <dbl>,
#> #   and abbreviated variable name ¹​arr_delay
…
Para responder esta pregunta necesitamos unir la base de datos de vuelos
con la de aeropuertos.

location <- airports %>%
  select(dest = iata, name = airport, lat, long)
flights %>%
    group_by(dest) %>%
    filter(!is.na(arr_delay)) %>%
    summarise(
        arr_delay = mean(arr_delay),
        n = n() ) %>%
        arrange(desc(arr_delay)) %>%
        left_join(location)
#> Joining, by = "dest"
#> # A tibble: 116 × 6
#>    dest  arr_delay     n name                                  lat   long
#>    <chr>     <dbl> <int> <chr>                               <dbl>  <dbl>
#>  1 ANC        26.1   124 Ted Stevens Anchorage International  61.2 -150. 
#>  2 CID        17.8   406 Eastern Iowa                         41.9  -91.7
#>  3 DSM        16.0   634 Des Moines International             41.5  -93.7
#>  4 SFO        14.9  2800 San Francisco International          37.6 -122. 
#>  5 BPT        14.3     3 Southeast Texas Regional             30.0  -94.0
#>  6 GRR        13.7   665 Kent County International            42.9  -85.5
#>  7 DAY        13.7   444 James M Cox Dayton Intl              39.9  -84.2
#>  8 VPS        12.5   864 Eglin Air Force Base                 30.5  -86.5
#>  9 ECP        12.4   720 <NA>                                 NA     NA  
#> 10 SAV        12.3   851 Savannah International               32.1  -81.2
#> # … with 106 more rows
…
hourly_delay <- flights %>%
  group_by(date_only, hour) %>%
  filter(!is.na(dep_delay)) %>%
  summarise(
    delay = mean(dep_delay),
    n = n() ) %>%
  filter(n > 10)
#> `summarise()` has grouped output by 'date_only'. You can override using the
#> `.groups` argument.
delay_weather <- hourly_delay %>% left_join(weather)
#> Joining, by = "hour"
arrange(delay_weather, -delay)
#> # A tibble: 2,091,842 × 17
#> # Groups:   date_only [365]
#>    date_only   hour delay     n date        temp dew_p…¹ humid…² press…³ visib…⁴
#>    <date>     <dbl> <dbl> <int> <date>     <dbl>   <dbl>   <dbl>   <dbl>   <dbl>
#>  1 2011-05-12    23  184.    33 2011-01-02  43      28.9      58    30.3      10
#>  2 2011-05-12    23  184.    33 2011-01-03  39      27        62    30.3      10
#>  3 2011-05-12    23  184.    33 2011-01-04  50      45        83    30.1      10
#>  4 2011-05-12    23  184.    33 2011-01-05  62.6    60.8      94    30.0       5
#>  5 2011-05-12    23  184.    33 2011-01-06  53.1    36        52    30.0      10
#>  6 2011-05-12    23  184.    33 2011-01-07  46.9    36        66    30.0      10
#>  7 2011-05-12    23  184.    33 2011-01-08  50      43        77    29.9      10
#>  8 2011-05-12    23  184.    33 2011-01-09  53.1    30        41    29.9      10
#>  9 2011-05-12    23  184.    33 2011-01-10  41      37        86    30.0      10
#> 10 2011-05-12    23  184.    33 2011-01-11  39.9    32        73    30.3      10
#> # … with 2,091,832 more rows, 7 more variables: wind_dir <chr>,
#> #   wind_dir2 <dbl>, wind_speed <dbl>, gust_speed <dbl>, precip <dbl>,
#> #   conditions <chr>, events <chr>, and abbreviated variable names ¹​dew_point,
#> #   ²​humidity, ³​pressure, ⁴​visibility
…
data: base de datos que vamos a reestructurar.

key: nombre de la nueva variable que contiene lo que fueron los nombres
de columnas que apilamos.

value: nombre de la variable que almacenará los valores que corresponden a
cada key.

…: lo último que especificamos son las columnas que vamos a apilar, la notación para seleccionarlas es la misma que usamos con select().

pew_tidy <- gather(data = pew, income, frequency, -religion)
pew_tidy
#> # A tibble: 180 × 3
#>    religion                income frequency
#>    <chr>                   <chr>      <dbl>
#>  1 Agnostic                <$10k         27
#>  2 Atheist                 <$10k         12
#>  3 Buddhist                <$10k         27
#>  4 Catholic                <$10k        418
#>  5 Don’t know/refused      <$10k         15
#>  6 Evangelical Prot        <$10k        575
#>  7 Hindu                   <$10k          1
#>  8 Historically Black Prot <$10k        228
#>  9 Jehovah's Witness       <$10k         20
#> 10 Jewish                  <$10k         19
#> # … with 170 more rows
…
billboard <- read_csv("data/billboard.csv")
#> Rows: 317 Columns: 81
#> ── Column specification ────────────────────────────────────────────────────────
#> Delimiter: ","
#> chr   (2): artist, track
#> dbl  (66): year, wk1, wk2, wk3, wk4, wk5, wk6, wk7, wk8, wk9, wk10, wk11, wk...
#> lgl  (11): wk66, wk67, wk68, wk69, wk70, wk71, wk72, wk73, wk74, wk75, wk76
#> date  (1): date.entered
#> time  (1): time
#> 
#> ℹ Use `spec()` to retrieve the full column specification for this data.
#> ℹ Specify the column types or set `show_col_types = FALSE` to quiet this message.
billboard
#> # A tibble: 317 × 81
#>     year artist track time  date.ent…¹   wk1   wk2   wk3   wk4   wk5   wk6   wk7
#>    <dbl> <chr>  <chr> <tim> <date>     <dbl> <dbl> <dbl> <dbl> <dbl> <dbl> <dbl>
#>  1  2000 2 Pac  Baby… 04:22 2000-02-26    87    82    72    77    87    94    99
#>  2  2000 2Ge+h… The … 03:15 2000-09-02    91    87    92    NA    NA    NA    NA
#>  3  2000 3 Doo… Kryp… 03:53 2000-04-08    81    70    68    67    66    57    54
#>  4  2000 3 Doo… Loser 04:24 2000-10-21    76    76    72    69    67    65    55
#>  5  2000 504 B… Wobb… 03:35 2000-04-15    57    34    25    17    17    31    36
#>  6  2000 98^0   Give… 03:24 2000-08-19    51    39    34    26    26    19     2
#>  7  2000 A*Tee… Danc… 03:44 2000-07-08    97    97    96    95   100    NA    NA
#>  8  2000 Aaliy… I Do… 04:15 2000-01-29    84    62    51    41    38    35    35
#>  9  2000 Aaliy… Try … 04:03 2000-03-18    59    53    38    28    21    18    16
#> 10  2000 Adams… Open… 05:30 2000-08-26    76    76    74    69    68    67    61
#> # … with 307 more rows, 69 more variables: wk8 <dbl>, wk9 <dbl>, wk10 <dbl>,
#> #   wk11 <dbl>, wk12 <dbl>, wk13 <dbl>, wk14 <dbl>, wk15 <dbl>, wk16 <dbl>,
#> #   wk17 <dbl>, wk18 <dbl>, wk19 <dbl>, wk20 <dbl>, wk21 <dbl>, wk22 <dbl>,
#> #   wk23 <dbl>, wk24 <dbl>, wk25 <dbl>, wk26 <dbl>, wk27 <dbl>, wk28 <dbl>,
#> #   wk29 <dbl>, wk30 <dbl>, wk31 <dbl>, wk32 <dbl>, wk33 <dbl>, wk34 <dbl>,
#> #   wk35 <dbl>, wk36 <dbl>, wk37 <dbl>, wk38 <dbl>, wk39 <dbl>, wk40 <dbl>,
#> #   wk41 <dbl>, wk42 <dbl>, wk43 <dbl>, wk44 <dbl>, wk45 <dbl>, wk46 <dbl>, …

Notemos que el rank en cada semana (una vez que entró a la lista) está guardado
en 75 columnas wk1 a wk75, este tipo de almacenamiento no es limpio pero
puede ser útil al momento de ingresar la información.

Para tener datos limpios apilamos las semanas de manera que sea una sola
columna (nuevamente alargamos los datos):

billboard_long <- gather(billboard, week, rank, wk1:wk76, na.rm = TRUE)
billboard_long
#> # A tibble: 5,307 × 7
#>     year artist         track                   time   date.entered week   rank
#>    <dbl> <chr>          <chr>                   <time> <date>       <chr> <dbl>
#>  1  2000 2 Pac          Baby Don't Cry (Keep... 04:22  2000-02-26   wk1      87
#>  2  2000 2Ge+her        The Hardest Part Of ... 03:15  2000-09-02   wk1      91
#>  3  2000 3 Doors Down   Kryptonite              03:53  2000-04-08   wk1      81
#>  4  2000 3 Doors Down   Loser                   04:24  2000-10-21   wk1      76
#>  5  2000 504 Boyz       Wobble Wobble           03:35  2000-04-15   wk1      57
#>  6  2000 98^0           Give Me Just One Nig... 03:24  2000-08-19   wk1      51
#>  7  2000 A*Teens        Dancing Queen           03:44  2000-07-08   wk1      97
#>  8  2000 Aaliyah        I Don't Wanna           04:15  2000-01-29   wk1      84
#>  9  2000 Aaliyah        Try Again               04:03  2000-03-18   wk1      59
#> 10  2000 Adams, Yolanda Open My Heart           05:30  2000-08-26   wk1      76
#> # … with 5,297 more rows
…
billboard_tidy <- billboard_long %>%
  mutate(
    week = parse_number(week),
    date = date.entered + 7 * (week - 1), 
    rank = as.numeric(rank)
    ) %>%
    select(-date.entered)
billboard_tidy
#> # A tibble: 5,307 × 7
#>     year artist         track                   time    week  rank date      
#>    <dbl> <chr>          <chr>                   <time> <dbl> <dbl> <date>    
#>  1  2000 2 Pac          Baby Don't Cry (Keep... 04:22      1    87 2000-02-26
#>  2  2000 2Ge+her        The Hardest Part Of ... 03:15      1    91 2000-09-02
#>  3  2000 3 Doors Down   Kryptonite              03:53      1    81 2000-04-08
#>  4  2000 3 Doors Down   Loser                   04:24      1    76 2000-10-21
#>  5  2000 504 Boyz       Wobble Wobble           03:35      1    57 2000-04-15
#>  6  2000 98^0           Give Me Just One Nig... 03:24      1    51 2000-08-19
#>  7  2000 A*Teens        Dancing Queen           03:44      1    97 2000-07-08
#>  8  2000 Aaliyah        I Don't Wanna           04:15      1    84 2000-01-29
#>  9  2000 Aaliyah        Try Again               04:03      1    59 2000-03-18
#> 10  2000 Adams, Yolanda Open My Heart           05:30      1    76 2000-08-26
#> # … with 5,297 more rows
…
