Chapter 4 Tarea | AIS: Capacitación de R
…
febrero <- dplyr::filter(datos, mes=="Febrero")
sum(febrero$total_Delitos)
#> [1] 303313

¿Cuál fue el tipo de delitos con mayor y menor incidencia?

library(tidyverse)

datos2022 %>% 
  group_by(tipo_delito) %>% 
  summarise(total_Delitos=sum(total_Delitos))
#> # A tibble: 40 × 2
#>    tipo_delito                               total_Delitos
#>    <chr>                                             <dbl>
#>  1 Aborto                                              808
#>  2 Abuso de confianza                                30632
#>  3 Abuso sexual                                      32831
#>  4 Acoso sexual                                      10908
#>  5 Allanamiento de morada                            13786
#>  6 Amenazas                                         132652
#>  7 Contra el medio ambiente                           2298
#>  8 Corrupción de menores                              2911
#>  9 Daño a la propiedad                              144829
#> 10 Delitos cometidos por servidores públicos         20145
#> # … with 30 more rows
